<svg xmlns="http://www.w3.org/2000/svg" width="24" height="24" viewBox="0 0 24 24">
  <path id="Контур_4044" data-name="Контур 4044" d="M12,0A12,12,0,1,0,24,12,12.026,12.026,0,0,0,12,0ZM8.44,2.022A11.621,11.621,0,0,0,6.7,5.377a15.05,15.05,0,0,1-2.09-.96A10.615,10.615,0,0,1,8.44,2.022ZM3.65,5.488A16.506,16.506,0,0,0,6.3,6.73,21.316,21.316,0,0,0,5.683,11.3H1.43A10.539,10.539,0,0,1,3.65,5.488ZM1.43,12.7H5.683a21.148,21.148,0,0,0,.678,4.807,16.517,16.517,0,0,0-2.568,1.182A10.543,10.543,0,0,1,1.43,12.7ZM4.786,19.75a14.959,14.959,0,0,1,2-.892,11.384,11.384,0,0,0,1.656,3.12A10.61,10.61,0,0,1,4.786,19.75ZM11.3,22.473c-1.541-.522-2.6-2.5-3.17-4.033a15.381,15.381,0,0,1,3.17-.477Zm0-5.93A16.648,16.648,0,0,0,7.7,17.09,19.724,19.724,0,0,1,7.09,12.7H11.3Zm0-5.246H7.09a19.918,19.918,0,0,1,.551-4.141,16.638,16.638,0,0,0,3.656.563Zm0-4.99A15.3,15.3,0,0,1,8.04,5.8C8.6,4.2,9.686,2.072,11.3,1.527ZM22.57,11.3H18.317A21.316,21.316,0,0,0,17.7,6.73,16.508,16.508,0,0,0,20.35,5.488,10.539,10.539,0,0,1,22.57,11.3Zm-3.181-6.88a15.036,15.036,0,0,1-2.09.96A11.622,11.622,0,0,0,15.56,2.022,10.614,10.614,0,0,1,19.389,4.416ZM12.7,1.527c1.61.546,2.7,2.67,3.257,4.277a15.3,15.3,0,0,1-3.257.5Zm0,6.193a16.638,16.638,0,0,0,3.656-.563A19.918,19.918,0,0,1,16.91,11.3H12.7Zm0,4.979H16.91A19.767,19.767,0,0,1,16.3,17.09a16.65,16.65,0,0,0-3.593-.547V12.7Zm0,9.775v-4.51a15.381,15.381,0,0,1,3.17.477C15.308,19.976,14.244,21.951,12.7,22.473Zm2.857-.5a11.381,11.381,0,0,0,1.656-3.12,14.956,14.956,0,0,1,2,.892A10.608,10.608,0,0,1,15.56,21.978Zm4.646-3.286a16.506,16.506,0,0,0-2.568-1.182,21.189,21.189,0,0,0,.678-4.811H22.57A10.557,10.557,0,0,1,20.206,18.692Z" fill="#fff"/>
</svg>
