<svg xmlns="http://www.w3.org/2000/svg" width="24" height="22.406" viewBox="0 0 24 22.406">
  <g id="Сгруппировать_2303" data-name="Сгруппировать 2303" transform="translate(0 -17)">
    <path id="Контур_4067" data-name="Контур 4067" d="M23.3,21.875H17.953V17.7a.7.7,0,0,0-.7-.7H.7a.7.7,0,0,0-.7.7V35.891a3.52,3.52,0,0,0,3.516,3.516H20.484A3.52,3.52,0,0,0,24,35.891V22.578A.7.7,0,0,0,23.3,21.875ZM3.516,38a2.112,2.112,0,0,1-2.109-2.109V18.406H16.547c0,18.584-.009,17.551.016,17.816A3.5,3.5,0,0,0,17.252,38Zm19.078-2.109A2.112,2.112,0,0,1,20.484,38h-.422a2.112,2.112,0,0,1-2.109-2.109V23.281h4.641Z" fill="#fff"/>
    <path id="Контур_4068" data-name="Контур 4068" d="M76.2,89H65.7a.7.7,0,0,0,0,1.406H76.2A.7.7,0,0,0,76.2,89Z" transform="translate(-61.953 -68.625)" fill="#fff"/>
    <path id="Контур_4069" data-name="Контур 4069" d="M76.2,153H65.7a.7.7,0,0,0,0,1.406H76.2a.7.7,0,0,0,0-1.406Z" transform="translate(-61.953 -129.625)" fill="#fff"/>
    <path id="Контур_4070" data-name="Контур 4070" d="M76.2,393H65.7a.7.7,0,0,0,0,1.406H76.2a.7.7,0,0,0,0-1.406Z" transform="translate(-61.953 -358.375)" fill="#fff"/>
    <path id="Контур_4071" data-name="Контур 4071" d="M182.953,217H177.7a.7.7,0,0,0-.7.7v5.25a.7.7,0,0,0,.7.7h5.25a.7.7,0,0,0,.7-.7V217.7A.7.7,0,0,0,182.953,217Zm-.7,5.25h-3.844v-3.844h3.844Z" transform="translate(-168.703 -190.625)" fill="#fff"/>
    <path id="Контур_4072" data-name="Контур 4072" d="M65.7,242.406h2.25a.7.7,0,0,0,0-1.406H65.7a.7.7,0,0,0,0,1.406Z" transform="translate(-61.953 -213.5)" fill="#fff"/>
    <path id="Контур_4073" data-name="Контур 4073" d="M65.7,306.406h2.25a.7.7,0,0,0,0-1.406H65.7a.7.7,0,0,0,0,1.406Z" transform="translate(-61.953 -274.5)" fill="#fff"/>
  </g>
</svg>
