<svg xmlns="http://www.w3.org/2000/svg" width="23.487" height="24" viewBox="0 0 23.487 24">
  <g id="Сгруппировать_2285" data-name="Сгруппировать 2285" transform="translate(-5.473)">
    <g id="Сгруппировать_2282" data-name="Сгруппировать 2282" transform="translate(8.604 13.039)">
      <g id="Сгруппировать_2281" data-name="Сгруппировать 2281">
        <path id="Контур_4039" data-name="Контур 4039" d="M80.89,284.436a8.958,8.958,0,0,1-4.9-1.269,4.755,4.755,0,0,1-2.146-4.212.783.783,0,0,0-1.566,0,6.316,6.316,0,0,0,2.844,5.515A10.521,10.521,0,0,0,80.89,286a.783.783,0,0,0,0-1.566Z" transform="translate(-72.278 -278.173)" fill="#fff"/>
      </g>
    </g>
    <g id="Сгруппировать_2284" data-name="Сгруппировать 2284" transform="translate(5.473)">
      <g id="Сгруппировать_2283" data-name="Сгруппировать 2283">
        <path id="Контур_4040" data-name="Контур 4040" d="M21.378,4.19a3.736,3.736,0,0,0-.448-.225,4.88,4.88,0,0,0-2.969-.141,2.3,2.3,0,0,1,2.348-2.258.783.783,0,0,0,0-1.566,3.925,3.925,0,0,0-2.761,1.114A3.809,3.809,0,0,0,16.4,3.836a4.928,4.928,0,0,0-3.049.1,3.828,3.828,0,0,0-.7.38,9.589,9.589,0,0,0-7.17,9.51,9.367,9.367,0,0,0,3.509,7.605A13.2,13.2,0,0,0,17.216,24a13.2,13.2,0,0,0,8.235-2.573,9.367,9.367,0,0,0,3.509-7.605C28.96,8.87,25.936,5.462,21.378,4.19ZM13.939,5.381a3.7,3.7,0,0,1,2.455.087V5.95a.783.783,0,1,0,1.566,0v-.5a3.632,3.632,0,0,1,2.364-.037,3.406,3.406,0,0,1,1.5,1.476,3.815,3.815,0,0,1-1.74.075.783.783,0,0,0-.939.931,3.81,3.81,0,0,1-.089,1.734,3.817,3.817,0,0,1-1.28-1.174.783.783,0,0,0-1.323-.006,3.812,3.812,0,0,1-1.289,1.163,3.818,3.818,0,0,1-.075-1.735.783.783,0,0,0-.931-.939,3.816,3.816,0,0,1-1.738-.09A3.414,3.414,0,0,1,13.939,5.381Zm3.277,17.053c-4.7,0-10.178-2.255-10.178-8.612a7.863,7.863,0,0,1,3.585-6.859c-.014.035-.022.057-.025.065A.783.783,0,0,0,11,8a6.521,6.521,0,0,0,2.46.566A6.526,6.526,0,0,0,14,11.028a.783.783,0,0,0,.969.406,6.526,6.526,0,0,0,2.14-1.34,6.523,6.523,0,0,0,2.128,1.359.783.783,0,0,0,.972-.4,6.524,6.524,0,0,0,.566-2.46,6.524,6.524,0,0,0,2.465-.544.783.783,0,0,0,.407-.965c-.007-.02-.046-.131-.121-.3a7.843,7.843,0,0,1,3.866,7.039C27.394,20.179,21.911,22.434,17.216,22.434Z" transform="translate(-5.473 0)" fill="#fff"/>
      </g>
    </g>
  </g>
</svg>
