<svg xmlns="http://www.w3.org/2000/svg" width="24" height="24" viewBox="0 0 24 24">
  <path id="Контур_4047" data-name="Контур 4047" d="M20.485,3.515A12,12,0,0,0,3.515,20.485,12,12,0,0,0,20.485,3.515ZM6.016,20.737a6.076,6.076,0,0,1,11.968,0,10.571,10.571,0,0,1-11.968,0ZM8.184,10.494A3.816,3.816,0,1,1,12,14.309,3.82,3.82,0,0,1,8.184,10.494ZM19.2,19.761a7.494,7.494,0,0,0-4.357-4.891,5.222,5.222,0,1,0-5.691,0A7.493,7.493,0,0,0,4.8,19.761a10.594,10.594,0,1,1,14.4,0Z" transform="translate(0 0)" fill="#fff"/>
</svg>
